﻿{
   "ContextClassName": "ProjtasksContext",
   "ContextNamespace": null,
   "DefaultDacpacSchema": null,
   "IncludeConnectionString": true,
   "ModelNamespace": null,
   "OutputContextPath": "Context2",
   "OutputPath": "Models",
   "ProjectRootNamespace": "ToDoAPI",
   "SelectedHandlebarsLanguage": 0,
   "SelectedToBeGenerated": 0,
   "Tables": [
      {
         "HasPrimaryKey": true,
         "Name": "[dbo].[Tasks]"
      }
   ],
   "UseDatabaseNames": false,
   "UseDbContextSplitting": false,
   "UseFluentApiOnly": true,
   "UseHandleBars": false,
   "UseInflector": false,
   "UseLegacyPluralizer": false,
   "UseNodaTime": false,
   "UseSpatial": false,
   "UseStoredProcedures": false
}